filename,label
0.jpg,001
1.jpg,001
2.jpg,001
3.jpg,001
4.jpg,001
5.jpg,001
6.jpg,001
7.jpg,002
8.jpg,002
9.jpg,002
10.jpg,002
11.jpg,002
12.jpg,002
13.jpg,002
14.jpg,003
15.jpg,003
16.jpg,003
17.jpg,003
18.jpg,003
19.jpg,003
20.jpg,003
21.jpg,004
22.jpg,004
23.jpg,004
24.jpg,004
25.jpg,004
26.jpg,004
27.jpg,004
28.jpg,005
29.jpg,005
30.jpg,005
31.jpg,005
32.jpg,005
33.jpg,005
34.jpg,005
35.jpg,006
36.jpg,006
37.jpg,006
38.jpg,006
39.jpg,006
40.jpg,006
41.jpg,006
42.jpg,007
43.jpg,007
44.jpg,007
45.jpg,007
46.jpg,007
47.jpg,007
48.jpg,007
49.jpg,008
50.jpg,008
51.jpg,008
52.jpg,008
53.jpg,008
54.jpg,008
55.jpg,008
56.jpg,009
57.jpg,009
58.jpg,009
59.jpg,009
60.jpg,009
61.jpg,009
62.jpg,009
63.jpg,010
64.jpg,010
65.jpg,010
66.jpg,010
67.jpg,010
68.jpg,010
69.jpg,010
70.jpg,011
71.jpg,011
72.jpg,011
73.jpg,011
74.jpg,011
75.jpg,011
76.jpg,011
77.jpg,012
78.jpg,012
79.jpg,012
80.jpg,012
81.jpg,012
82.jpg,012
83.jpg,012
84.jpg,013
85.jpg,013
86.jpg,013
87.jpg,013
88.jpg,013
89.jpg,013
90.jpg,013
91.jpg,014
92.jpg,014
93.jpg,014
94.jpg,014
95.jpg,014
96.jpg,014
97.jpg,014
98.jpg,015
99.jpg,015
100.jpg,015
101.jpg,015
102.jpg,015
103.jpg,015
104.jpg,015
105.jpg,016
106.jpg,016
107.jpg,016
108.jpg,016
109.jpg,016
110.jpg,016
111.jpg,016
112.jpg,017
113.jpg,017
114.jpg,017
115.jpg,017
116.jpg,017
117.jpg,017
118.jpg,017
119.jpg,018
120.jpg,018
121.jpg,018
122.jpg,018
123.jpg,018
124.jpg,018
125.jpg,018
126.jpg,019
127.jpg,019
128.jpg,019
129.jpg,019
130.jpg,019
131.jpg,019
132.jpg,019
133.jpg,020
134.jpg,020
135.jpg,020
136.jpg,020
137.jpg,020
138.jpg,020
139.jpg,020
140.jpg,021
141.jpg,021
142.jpg,021
143.jpg,021
144.jpg,021
145.jpg,021
146.jpg,021
147.jpg,022
148.jpg,022
149.jpg,022
150.jpg,022
151.jpg,022
152.jpg,022
153.jpg,022
154.jpg,023
155.jpg,023
156.jpg,023
157.jpg,023
158.jpg,023
159.jpg,023
160.jpg,023
161.jpg,024
162.jpg,024
163.jpg,024
164.jpg,024
165.jpg,024
166.jpg,024
167.jpg,024
168.jpg,025
169.jpg,025
170.jpg,025
171.jpg,025
172.jpg,025
173.jpg,025
174.jpg,025
175.jpg,026
176.jpg,026
177.jpg,026
178.jpg,026
179.jpg,026
180.jpg,026
181.jpg,026
182.jpg,027
183.jpg,027
184.jpg,027
185.jpg,027
186.jpg,027
187.jpg,027
188.jpg,027
189.jpg,028
190.jpg,028
191.jpg,028
192.jpg,028
193.jpg,028
194.jpg,028
195.jpg,028
196.jpg,029
197.jpg,029
198.jpg,029
199.jpg,029
200.jpg,029
201.jpg,029
202.jpg,029
203.jpg,030
204.jpg,030
205.jpg,030
206.jpg,030
207.jpg,030
208.jpg,030
209.jpg,030
210.jpg,031
211.jpg,031
212.jpg,031
213.jpg,031
214.jpg,031
215.jpg,031
216.jpg,031
217.jpg,032
218.jpg,032
219.jpg,032
220.jpg,032
221.jpg,032
222.jpg,032
223.jpg,032
224.jpg,033
225.jpg,033
226.jpg,033
227.jpg,033
228.jpg,033
229.jpg,033
230.jpg,033
231.jpg,034
232.jpg,034
233.jpg,034
234.jpg,034
235.jpg,034
236.jpg,034
237.jpg,034
238.jpg,035
239.jpg,035
240.jpg,035
241.jpg,035
242.jpg,035
243.jpg,035
244.jpg,035
245.jpg,036
246.jpg,036
247.jpg,036
248.jpg,036
249.jpg,036
250.jpg,036
251.jpg,036
252.jpg,037
253.jpg,037
254.jpg,037
255.jpg,037
256.jpg,037
257.jpg,037
258.jpg,037
259.jpg,038
260.jpg,038
261.jpg,038
262.jpg,038
263.jpg,038
264.jpg,038
265.jpg,038
266.jpg,039
267.jpg,039
268.jpg,039
269.jpg,039
270.jpg,039
271.jpg,039
272.jpg,039
273.jpg,040
274.jpg,040
275.jpg,040
276.jpg,040
277.jpg,040
278.jpg,040
279.jpg,040
280.jpg,041
281.jpg,041
282.jpg,041
283.jpg,041
284.jpg,041
285.jpg,041
286.jpg,041
287.jpg,042
288.jpg,042
289.jpg,042
290.jpg,042
291.jpg,042
292.jpg,042
293.jpg,042
294.jpg,043
295.jpg,043
296.jpg,043
297.jpg,043
298.jpg,043
299.jpg,043
300.jpg,043
301.jpg,044
302.jpg,044
303.jpg,044
304.jpg,044
305.jpg,044
306.jpg,044
307.jpg,044
308.jpg,045
309.jpg,045
310.jpg,045
311.jpg,045
312.jpg,045
313.jpg,045
314.jpg,045
315.jpg,046
316.jpg,046
317.jpg,046
318.jpg,046
319.jpg,046
320.jpg,046
321.jpg,046
322.jpg,047
323.jpg,047
324.jpg,047
325.jpg,047
326.jpg,047
327.jpg,047
328.jpg,047
329.jpg,048
330.jpg,048
331.jpg,048
332.jpg,048
333.jpg,048
334.jpg,048
335.jpg,048
336.jpg,049
337.jpg,049
338.jpg,049
339.jpg,049
340.jpg,049
341.jpg,049
342.jpg,049
343.jpg,050
344.jpg,050
345.jpg,050
346.jpg,050
347.jpg,050
348.jpg,050
349.jpg,050
350.jpg,051
351.jpg,051
352.jpg,051
353.jpg,051
354.jpg,051
355.jpg,051
356.jpg,051
357.jpg,052
358.jpg,052
359.jpg,052
360.jpg,052
361.jpg,052
362.jpg,052
363.jpg,052
364.jpg,053
365.jpg,053
366.jpg,053
367.jpg,053
368.jpg,053
369.jpg,053
370.jpg,053
371.jpg,054
372.jpg,054
373.jpg,054
374.jpg,054
375.jpg,054
376.jpg,054
377.jpg,054
378.jpg,055
379.jpg,055
380.jpg,055
381.jpg,055
382.jpg,055
383.jpg,055
384.jpg,055
385.jpg,056
386.jpg,056
387.jpg,056
388.jpg,056
389.jpg,056
390.jpg,056
391.jpg,056
392.jpg,057
393.jpg,057
394.jpg,057
395.jpg,057
396.jpg,057
397.jpg,057
398.jpg,057
399.jpg,058
400.jpg,058
401.jpg,058
402.jpg,058
403.jpg,058
404.jpg,058
405.jpg,058
406.jpg,059
407.jpg,059
408.jpg,059
409.jpg,059
410.jpg,059
411.jpg,059
412.jpg,059
413.jpg,060
414.jpg,060
415.jpg,060
416.jpg,060
417.jpg,060
418.jpg,060
419.jpg,060
420.jpg,061
421.jpg,061
422.jpg,061
423.jpg,061
424.jpg,061
425.jpg,061
426.jpg,061
427.jpg,062
428.jpg,062
429.jpg,062
430.jpg,062
431.jpg,062
432.jpg,062
433.jpg,062
434.jpg,063
435.jpg,063
436.jpg,063
437.jpg,063
438.jpg,063
439.jpg,063
440.jpg,063
441.jpg,064
442.jpg,064
443.jpg,064
444.jpg,064
445.jpg,064
446.jpg,064
447.jpg,064
448.jpg,065
449.jpg,065
450.jpg,065
451.jpg,065
452.jpg,065
453.jpg,065
454.jpg,065
455.jpg,066
456.jpg,066
457.jpg,066
458.jpg,066
459.jpg,066
460.jpg,066
461.jpg,066
462.jpg,067
463.jpg,067
464.jpg,067
465.jpg,067
466.jpg,067
467.jpg,067
468.jpg,067
469.jpg,068
470.jpg,068
471.jpg,068
472.jpg,068
473.jpg,068
474.jpg,068
475.jpg,068
476.jpg,069
477.jpg,069
478.jpg,069
479.jpg,069
480.jpg,069
481.jpg,069
482.jpg,069
483.jpg,070
484.jpg,070
485.jpg,070
486.jpg,070
487.jpg,070
488.jpg,070
489.jpg,070
490.jpg,071
491.jpg,071
492.jpg,071
493.jpg,071
494.jpg,071
495.jpg,071
496.jpg,071
497.jpg,072
498.jpg,072
499.jpg,072
500.jpg,072
501.jpg,072
502.jpg,072
503.jpg,072
504.jpg,073
505.jpg,073
506.jpg,073
507.jpg,073
508.jpg,073
509.jpg,073
510.jpg,073
511.jpg,074
512.jpg,074
513.jpg,074
514.jpg,074
515.jpg,074
516.jpg,074
517.jpg,074
518.jpg,075
519.jpg,075
520.jpg,075
521.jpg,075
522.jpg,075
523.jpg,075
524.jpg,075
525.jpg,076
526.jpg,076
527.jpg,076
528.jpg,076
529.jpg,076
530.jpg,076
531.jpg,076
532.jpg,077
533.jpg,077
534.jpg,077
535.jpg,077
536.jpg,077
537.jpg,077
538.jpg,077
539.jpg,078
540.jpg,078
541.jpg,078
542.jpg,078
543.jpg,078
544.jpg,078
545.jpg,078
546.jpg,079
547.jpg,079
548.jpg,079
549.jpg,079
550.jpg,079
551.jpg,079
552.jpg,079
553.jpg,080
554.jpg,080
555.jpg,080
556.jpg,080
557.jpg,080
558.jpg,080
559.jpg,080
560.jpg,081
561.jpg,081
562.jpg,081
563.jpg,081
564.jpg,081
565.jpg,081
566.jpg,081
567.jpg,082
568.jpg,082
569.jpg,082
570.jpg,082
571.jpg,082
572.jpg,082
573.jpg,082
574.jpg,083
575.jpg,083
576.jpg,083
577.jpg,083
578.jpg,083
579.jpg,083
580.jpg,083
581.jpg,084
582.jpg,084
583.jpg,084
584.jpg,084
585.jpg,084
586.jpg,084
587.jpg,084
588.jpg,085
589.jpg,085
590.jpg,085
591.jpg,085
592.jpg,085
593.jpg,085
594.jpg,085
595.jpg,086
596.jpg,086
597.jpg,086
598.jpg,086
599.jpg,086
600.jpg,086
601.jpg,086
602.jpg,087
603.jpg,087
604.jpg,087
605.jpg,087
606.jpg,087
607.jpg,087
608.jpg,087
609.jpg,088
610.jpg,088
611.jpg,088
612.jpg,088
613.jpg,088
614.jpg,088
615.jpg,088
616.jpg,089
617.jpg,089
618.jpg,089
619.jpg,089
620.jpg,089
621.jpg,089
622.jpg,089
623.jpg,090
624.jpg,090
625.jpg,090
626.jpg,090
627.jpg,090
628.jpg,090
629.jpg,090
630.jpg,091
631.jpg,091
632.jpg,091
633.jpg,091
634.jpg,091
635.jpg,091
636.jpg,091
637.jpg,092
638.jpg,092
639.jpg,092
640.jpg,092
641.jpg,092
642.jpg,092
643.jpg,092
644.jpg,093
645.jpg,093
646.jpg,093
647.jpg,093
648.jpg,093
649.jpg,093
650.jpg,093
651.jpg,094
652.jpg,094
653.jpg,094
654.jpg,094
655.jpg,094
656.jpg,094
657.jpg,094
658.jpg,095
659.jpg,095
660.jpg,095
661.jpg,095
662.jpg,095
663.jpg,095
664.jpg,095
665.jpg,096
666.jpg,096
667.jpg,096
668.jpg,096
669.jpg,096
670.jpg,096
671.jpg,096
672.jpg,097
673.jpg,097
674.jpg,097
675.jpg,097
676.jpg,097
677.jpg,097
678.jpg,097
679.jpg,098
680.jpg,098
681.jpg,098
682.jpg,098
683.jpg,098
684.jpg,098
685.jpg,098
686.jpg,099
687.jpg,099
688.jpg,099
689.jpg,099
690.jpg,099
691.jpg,099
692.jpg,099
693.jpg,100
694.jpg,100
695.jpg,100
696.jpg,100
697.jpg,100
698.jpg,100
699.jpg,100
700.jpg,101
701.jpg,101
702.jpg,101
703.jpg,101
704.jpg,101
705.jpg,101
706.jpg,101
707.jpg,102
708.jpg,102
709.jpg,102
710.jpg,102
711.jpg,102
712.jpg,102
713.jpg,102
714.jpg,103
715.jpg,103
716.jpg,103
717.jpg,103
718.jpg,103
719.jpg,103
720.jpg,103
721.jpg,104
722.jpg,104
723.jpg,104
724.jpg,104
725.jpg,104
726.jpg,104
727.jpg,104
728.jpg,105
729.jpg,105
730.jpg,105
731.jpg,105
732.jpg,105
733.jpg,105
734.jpg,105
735.jpg,106
736.jpg,106
737.jpg,106
738.jpg,106
739.jpg,106
740.jpg,106
741.jpg,106
742.jpg,107
743.jpg,107
744.jpg,107
745.jpg,107
746.jpg,107
747.jpg,107
748.jpg,107
749.jpg,108
750.jpg,108
751.jpg,108
752.jpg,108
753.jpg,108
754.jpg,108
755.jpg,108
